Matrices Portfolio
…
  read_csv(col_types = cols(
      Votes=col_double(),
      Owner=col_factor(),
      Kernel=col_factor(),
      Dataset=col_factor(),
      Output=col_character(),
      `Code Type`=col_factor(),
      Language=col_factor(),
      Comments=col_double(),
      Views=col_double(),
      Forks=col_double())
      )
kaggle # Tibbles automatically print head(tibble)

## # A tibble: 971 x 12
##    Votes Owner Kernel Dataset `Version Histor… Tags  Output `Code Type` Language
##    <dbl> <fct> <fct>  <fct>   <chr>            <chr> <chr>  <fct>       <fct>   
##  1  2130 Mega… Explo… Titani… Version 8,2017-… tuto… This … Script      markdown
##  2  1395 Guid… Full … Data S… Version 19,2017… tuto… This … Notebook    Python  
##  3  1363 Pedr… Compr… House … Version 47,2018… begi… This … Notebook    Python  
##  4  1316 Anis… Intro… Titani… Version 93,2018… tuto… This … Notebook    Python  
##  5  1078 Kaan… Data … Pokemo… Version 389,201… begi… This … Notebook    Python  
##  6  1003 Phil… Explo… Zillow… Version 44,2017… begi… This … Script      markdown
##  7   946 Mana… Titan… Titani… Version 16,2017… tuto… This … Notebook    Python  
##  8   826 Omar… A Jou… Titani… Version 6,2016-… begi… This … Notebook    Python  
##  9   814 anok… Data … Quora … <NA>             inte… This … Notebook    Python  
## 10   726 SRK   Simpl… Zillow… Version 19,2017… eda,… This … Notebook    Python  
## # … with 961 more rows, and 3 more variables: Comments <dbl>, Views <dbl>,
## #   Forks <dbl>
…
# stop here in order to have the column names
tagmatrix <- kaggle  %>% 
    dplyr::select(Tags) %>%  
    mutate(rn=row_number()) %>%             
    separate_rows(Tags, sep="\\s*,\\s*") %>%  # RegEx comma-separated tags
    mutate(i1=1) %>%                          # Uniquely identifies rows together with rn
    mutate_all(~na_if(., "")) %>%             # remove NA generated by "<tag>,"
    pivot_wider(names_from = Tags, 
                values_from = i1,
                values_fill = list(i1 = 0)) %>% # Wide format
    dplyr::select(-rn, -"NA")
tagmatrix

## # A tibble: 971 x 101
##    tutorial beginner `feature engine… preprocessing   eda `data cleaning`
##       <dbl>    <dbl>            <dbl>         <dbl> <dbl>           <dbl>
##  1        1        1                1             0     0               0
##  2        1        0                0             1     0               0
##  3        0        1                0             0     1               1
##  4        1        0                0             0     0               0
##  5        0        1                0             0     0               0
##  6        0        1                0             0     1               0
##  7        1        0                1             0     0               0
##  8        0        1                0             0     1               0
##  9        0        0                0             0     1               0
## 10        0        0                0             0     1               0
## # … with 961 more rows, and 95 more variables: ensembling <dbl>, xgboost <dbl>,
## #   `data visualization` <dbl>, `model comparison` <dbl>, `random
## #   forest` <dbl>, `logistic regression` <dbl>, intermediate <dbl>, nlp <dbl>,
## #   `regression analysis` <dbl>, `time series` <dbl>, `geospatial
## #   analysis` <dbl>, `linear regression` <dbl>, advanced <dbl>, cnn <dbl>,
## #   classification <dbl>, `neural networks` <dbl>, linguistics <dbl>, `survey
## #   analysis` <dbl>, `dimensionality reduction` <dbl>, pca <dbl>, `image
## #   processing` <dbl>, `deep learning` <dbl>, storytelling <dbl>,
## #   databases <dbl>, bigquery <dbl>, learning <dbl>, crime <dbl>,
…
